…
logistic_workflow <- workflow() %>% 
          add_model(logistic_model) %>% 
          add_recipe(diabetes_recipe) %>% 
          tune_grid(resamples = folds,
                    control = control_grid(save_pred = TRUE, 
                                            verbose = FALSE)) ## Edit for running live

collect_metrics(logistic_workflow) 
```

```
## # A tibble: 30 × 8
##         penalty mixture .metric     .estimator  mean     n  std_err .config     
##           <dbl>   <dbl> <chr>       <chr>      <dbl> <int>    <dbl> <chr>       
##  1 0.0000000167   0.05  accuracy    binary     0.673     5 0.00253  Preprocesso…
##  2 0.0000000167   0.05  brier_class binary     0.211     5 0.000701 Preprocesso…
##  3 0.0000000167   0.05  roc_auc     binary     0.659     5 0.00425  Preprocesso…
##  4 0.0000359      0.156 accuracy    binary     0.674     5 0.00256  Preprocesso…
##  5 0.0000359      0.156 brier_class binary     0.211     5 0.000704 Preprocesso…
##  6 0.0000359      0.156 roc_auc     binary     0.659     5 0.00428  Preprocesso…
##  7 0.0774         0.261 accuracy    binary     0.697     5 0.00455  Preprocesso…
##  8 0.0774         0.261 brier_class binary     0.214     5 0.000459 Preprocesso…
##  9 0.0774         0.261 roc_auc     binary     0.655     5 0.00620  Preprocesso…
## 10 0.0000000001   0.367 accuracy    binary     0.673     5 0.00241  Preprocesso…
## # ℹ 20 more rows
```
…
```
## i Creating pre-processing data to finalize unknown parameter: mtry
```

``` r
collect_metrics(rf_workflow) 
```

```
## # A tibble: 30 × 9
##     mtry trees min_n .metric     .estimator  mean     n  std_err .config        
##    <int> <int> <int> <chr>       <chr>      <dbl> <int>    <dbl> <chr>          
##  1     1   667    18 accuracy    binary     0.769     5 0.00373  Preprocessor1_…
##  2     1   667    18 brier_class binary     0.201     5 0.000358 Preprocessor1_…
##  3     1   667    18 roc_auc     binary     0.629     5 0.00442  Preprocessor1_…
##  4     2  1777    23 accuracy    binary     0.839     5 0.00160  Preprocessor1_…
##  5     2  1777    23 brier_class binary     0.148     5 0.000688 Preprocessor1_…
##  6     2  1777    23 roc_auc     binary     0.634     5 0.00406  Preprocessor1_…
##  7     4   445    35 accuracy    binary     0.897     5 0.00187  Preprocessor1_…
##  8     4   445    35 brier_class binary     0.108     5 0.000896 Preprocessor1_…
##  9     4   445    35 roc_auc     binary     0.635     5 0.00271  Preprocessor1_…
## 10     5  1111     2 accuracy    binary     0.909     5 0.00214  Preprocessor1_…
## # ℹ 20 more rows
```
…
```
## → A | error:   $ operator is invalid for atomic vectors
```

```
## There were issues with some computations   A: x1There were issues with some computations   A: x2There were issues with some computations   A: x3There were issues with some computations   A: x4There were issues with some computations   A: x5There were issues with some computations   A: x6There were issues with some computations   A: x7There were issues with some computations   A: x8There were issues with some computations   A: x8
```

``` r
collect_metrics(svm_workflow) 
```

```
## # A tibble: 30 × 8
##        cost    rbf_sigma .metric     .estimator  mean     n  std_err .config    
##       <dbl>        <dbl> <chr>       <chr>      <dbl> <int>    <dbl> <chr>      
##  1 0.000977 0.000000215  accuracy    binary     0.924     5 0.00203  Preprocess…
##  2 0.000977 0.000000215  brier_class binary     0.228     5 0.000108 Preprocess…
##  3 0.000977 0.000000215  roc_auc     binary     0.657     5 0.00521  Preprocess…
##  4 0.00310  0.00599      accuracy    binary     0.870     4 0.00707  Preprocess…
##  5 0.00310  0.00599      brier_class binary     0.292     4 0.00221  Preprocess…
##  6 0.00310  0.00599      roc_auc     binary     0.659     4 0.00498  Preprocess…
##  7 0.00984  0.0000000001 accuracy    binary     0.924     5 0.00203  Preprocess…
##  8 0.00984  0.0000000001 brier_class binary     0.228     5 0.000107 Preprocess…
##  9 0.00984  0.0000000001 roc_auc     binary     0.655     5 0.00429  Preprocess…
## 10 0.0312   0.00000278   accuracy    binary     0.924     5 0.00203  Preprocess…
## # ℹ 20 more rows
```
…
