…
``` r
bmi_recipe <- 
  recipe(bmi_recode ~ ., data = train_data) %>% 
  update_role(ADM_STUDY_ID, new_role = "ID") %>% 
  step_normalize(all_numeric_predictors()) %>% ### Mean center and standardize (z-score) the numeric predictors
  step_dummy(all_nominal_predictors()) %>% ### One hot encoding. Dramatically improves model performance with many factors
  step_zv(all_predictors()) ### Remove columns from the data when the training set data have a single value. Zero variance predictor

summary(bmi_recipe)
```

```
## # A tibble: 92 × 4
##    variable                  type      role      source  
##    <chr>                     <list>    <chr>     <chr>   
##  1 ADM_STUDY_ID              <chr [2]> ID        original
##  2 SDC_GENDER                <chr [3]> predictor original
##  3 SDC_AGE_CALC              <chr [2]> predictor original
##  4 SDC_MARITAL_STATUS        <chr [3]> predictor original
##  5 SDC_EDU_LEVEL             <chr [3]> predictor original
##  6 SDC_EDU_LEVEL_AGE         <chr [2]> predictor original
##  7 SDC_INCOME_IND_NB         <chr [3]> predictor original
##  8 SDC_HOUSEHOLD_ADULTS_NB   <chr [3]> predictor original
##  9 SDC_HOUSEHOLD_CHILDREN_NB <chr [3]> predictor original
## 10 HS_GEN_HEALTH             <chr [3]> predictor original
## # ℹ 82 more rows
```
…
``` r
bmi_fit %>% 
  extract_fit_parsnip() %>% 
  tidy()
```

```
## # A tibble: 194 × 5
##    term                   estimate std.error statistic  p.value
##    <chr>                     <dbl>     <dbl>     <dbl>    <dbl>
##  1 (Intercept)            26.0        2.99      8.68   4.15e-18
##  2 SDC_AGE_CALC            0.0238     0.0720    0.331  7.41e- 1
##  3 SDC_EDU_LEVEL_AGE       0.0617     0.0408    1.51   1.31e- 1
##  4 PA_TOTAL_SHORT         -0.137      0.0362   -3.80   1.47e- 4
##  5 PSE_ADULT_WRK_DURATION  0.0723     0.0411    1.76   7.84e- 2
##  6 SDC_GENDER_X2           1.70       1.57      1.09   2.77e- 1
##  7 SDC_MARITAL_STATUS_X2   0.00531    0.157     0.0339 9.73e- 1
##  8 SDC_MARITAL_STATUS_X3   0.00251    0.238     0.0105 9.92e- 1
##  9 SDC_MARITAL_STATUS_X4  -0.347      0.204    -1.70   8.90e- 2
## 10 SDC_MARITAL_STATUS_X5   0.0292     0.161     0.182  8.56e- 1
## # ℹ 184 more rows
```
…
ridge_workflow <- workflow() %>%
  add_recipe(bmi_recipe)

ridge_fit <- ridge_workflow %>%
  add_model(ridge_model) %>%
  fit(data = train_data)

ridge_fit %>%
        extract_fit_parsnip() %>%
        tidy()
```

```
## # A tibble: 194 × 3
##    term                   estimate penalty
##    <chr>                     <dbl>   <dbl>
##  1 (Intercept)            25.8         0.1
##  2 SDC_AGE_CALC            0.0241      0.1
##  3 SDC_EDU_LEVEL_AGE       0.0660      0.1
##  4 PA_TOTAL_SHORT         -0.142       0.1
##  5 PSE_ADULT_WRK_DURATION  0.0711      0.1
##  6 SDC_GENDER_X2          -0.0538      0.1
##  7 SDC_MARITAL_STATUS_X2   0.00208     0.1
##  8 SDC_MARITAL_STATUS_X3  -0.0129      0.1
##  9 SDC_MARITAL_STATUS_X4  -0.339       0.1
## 10 SDC_MARITAL_STATUS_X5   0.0180      0.1
## # ℹ 184 more rows
```
…
Let's pull the results and see what we get


``` r
ridge_grid_tune %>%
  collect_metrics()
```

```
## # A tibble: 50 × 7
##     penalty .metric .estimator   mean     n  std_err .config              
##       <dbl> <chr>   <chr>       <dbl> <int>    <dbl> <chr>                
##  1 1   e-10 rmse    standard   6.00      25 0.0118   Preprocessor1_Model01
##  2 1   e-10 rsq     standard   0.0701    25 0.000873 Preprocessor1_Model01
##  3 2.61e-10 rmse    standard   6.00      25 0.0118   Preprocessor1_Model02
##  4 2.61e-10 rsq     standard   0.0701    25 0.000873 Preprocessor1_Model02
##  5 6.81e-10 rmse    standard   6.00      25 0.0118   Preprocessor1_Model03
##  6 6.81e-10 rsq     standard   0.0701    25 0.000873 Preprocessor1_Model03
##  7 1.78e- 9 rmse    standard   6.00      25 0.0118   Preprocessor1_Model04
##  8 1.78e- 9 rsq     standard   0.0701    25 0.000873 Preprocessor1_Model04
##  9 4.64e- 9 rmse    standard   6.00      25 0.0118   Preprocessor1_Model05
## 10 4.64e- 9 rsq     standard   0.0701    25 0.000873 Preprocessor1_Model05
## # ℹ 40 more rows
```
…
### Variable importance 


``` r
final_ridge_model <- final_ridge_model_workflow %>%
                        fit(data = train_data)

final_ridge_model %>%
        extract_fit_parsnip() %>%
        tidy()
```

```
## # A tibble: 194 × 3
##    term                    estimate penalty
##    <chr>                      <dbl>   <dbl>
##  1 (Intercept)            25.5            1
##  2 SDC_AGE_CALC            0.0235         1
##  3 SDC_EDU_LEVEL_AGE       0.0444         1
##  4 PA_TOTAL_SHORT         -0.141          1
##  5 PSE_ADULT_WRK_DURATION  0.0708         1
##  6 SDC_GENDER_X2          -0.135          1
##  7 SDC_MARITAL_STATUS_X2  -0.000721       1
##  8 SDC_MARITAL_STATUS_X3  -0.0118         1
##  9 SDC_MARITAL_STATUS_X4  -0.285          1
## 10 SDC_MARITAL_STATUS_X5   0.00461        1
## # ℹ 184 more rows
```
…
