…
``` r
diabetes_fit_oversamp <- 
  diabetes_wflow_oversamp %>% 
  fit(data = train_data)
```


``` r
diabetes_fit_oversamp %>% 
  extract_fit_parsnip() %>% 
  tidy()
```

```
## # A tibble: 30 × 5
##    term                   estimate std.error statistic   p.value
##    <chr>                     <dbl>     <dbl>     <dbl>     <dbl>
##  1 (Intercept)             -0.135    0.00990    -13.7  1.53e- 42
##  2 SDC_AGE_CALC             0.389    0.0118      32.9  1.25e-237
##  3 PM_BMI_SR                0.175    0.0102      17.0  3.80e- 65
##  4 PA_TOTAL_SHORT          -0.0981   0.0101      -9.66 4.26e- 22
##  5 PSE_ADULT_WRK_DURATION   0.0631   0.0112       5.62 1.94e-  8
##  6 SDC_EDU_LEVEL_AGE        0.0270   0.0112       2.41 1.59e-  2
##  7 SDC_EDU_LEVEL_X1         0.202    0.0556       3.64 2.77e-  4
##  8 SDC_EDU_LEVEL_X2         0.937    0.198        4.73 2.30e-  6
##  9 SDC_EDU_LEVEL_X3         0.641    0.140        4.59 4.40e-  6
## 10 SDC_EDU_LEVEL_X4         1.03     0.212        4.88 1.04e-  6
## # ℹ 20 more rows
```
…
diabetes_wflow_oversamp_tune <- workflow() %>% 
          add_model(logistic_m_mixture) %>% 
          add_recipe(diabetes_rec_oversamp) %>% 
          tune_grid(resamples = folds,
                    control = control_grid(save_pred = TRUE, 
                                            verbose = FALSE)) ## Edit for running live

collect_metrics(diabetes_wflow_oversamp_tune) 
```

```
## # A tibble: 30 × 8
##         penalty mixture .metric     .estimator  mean     n  std_err .config     
##           <dbl>   <dbl> <chr>       <chr>      <dbl> <int>    <dbl> <chr>       
##  1 0.0000000217   0.114 accuracy    binary     0.706     5 0.00188  Preprocesso…
##  2 0.0000000217   0.114 brier_class binary     0.194     5 0.000875 Preprocesso…
##  3 0.0000000217   0.114 roc_auc     binary     0.715     5 0.00788  Preprocesso…
##  4 0.0327         0.186 accuracy    binary     0.709     5 0.00223  Preprocesso…
##  5 0.0327         0.186 brier_class binary     0.194     5 0.000663 Preprocesso…
##  6 0.0327         0.186 roc_auc     binary     0.717     5 0.00768  Preprocesso…
##  7 0.0000142      0.255 accuracy    binary     0.706     5 0.00192  Preprocesso…
##  8 0.0000142      0.255 brier_class binary     0.194     5 0.000862 Preprocesso…
##  9 0.0000142      0.255 roc_auc     binary     0.715     5 0.00790  Preprocesso…
## 10 0.132          0.368 accuracy    binary     0.749     5 0.00278  Preprocesso…
## # ℹ 20 more rows
```
…
