…
``` r
data <- data %>% select(ID:HS_GEN_HEALTH, PA_TOTAL_SHORT, PM_BMI_SR, contains("_EVER"), contains("WRK_"))
```

### We want a quick summary of missing data for each variable. This function is from the `naniar` package. We have lots of variables so let's save this as a table that we inspect a little easier. 


``` r
missing_table <- miss_var_summary(data)
missing_table
```

```
## # A tibble: 195 × 3
##    variable                       n_miss pct_miss
##    <chr>                           <int>    <num>
##  1 DIS_MH_BIPOLAR_EVER             41171    100. 
##  2 DIS_GEN_DS_EVER                 41143     99.9
##  3 DIS_GEN_AIS_EVER                41143     99.9
##  4 DIS_GEN_HEMOPHILIA_EVER         41143     99.9
##  5 DIS_GEN_KS_EVER                 41143     99.9
##  6 DIS_GEN_TS_EVER                 41143     99.9
##  7 DIS_GEN_CAH_EVER                41141     99.9
##  8 DIS_GEN_CF_EVER                 41138     99.9
##  9 DIS_GEN_THALASSEMIA_EVER        41107     99.8
## 10 DIS_CARDIO_PREM_HD_FEMALE_EVER  41081     99.7
## # ℹ 185 more rows
```
…
