…
folds <- vfold_cv(train_data, v = 10) 

rf_grid <- grid_regular(
              mtry(range = c(5, 30)),
              min_n(range = c(5, 50)),
              levels = 5  
            )

rf_grid
```

```
## # A tibble: 25 × 2
##     mtry min_n
##    <int> <int>
##  1     5     5
##  2    11     5
##  3    17     5
##  4    23     5
##  5    30     5
##  6     5    16
##  7    11    16
##  8    17    16
##  9    23    16
## 10    30    16
## # ℹ 15 more rows
```
…
